Final Lab/dump.vcd
$date
    Oct 14, 2021  03:54:27
$end
$version
    TOOL:	xmsim	20.09-s003
$end
$timescale
    1 ns
$end

$scope module gameboy_tb $end
$var reg       1 !    CLOCK $end
$var reg       1 "    RESET $end
$var reg       2 #    X [1:0] $end
$var wire      3 $    Z [2:0] $end
$var parameter 32 %    Kick $end
$var parameter 32 &    Punch $end
$var parameter 32 '    Jump $end
$var parameter 32 (    Duck $end
$var parameter 32 )    Run $end
$var parameter 32 *    Fight $end
$var parameter 32 +    React $end
$var parameter 32 ,    A $end
$var parameter 32 -    B $end

$scope module DUT $end
$var wire      1 .    clock  $end
$var wire      1 /    reset  $end
$var wire      2 0    x [1:0] $end
$var reg       3 1    z [2:0] $end
$var reg       2 2    state [1:0] $end
$var parameter 32 3    IDLE $end
$var parameter 32 4    FIGHT $end
$var parameter 32 5    REACT $end
$var parameter  3 6    Kick $end
$var parameter  3 7    Punch $end
$var parameter  3 8    Jump $end
$var parameter  3 9    Duck $end
$var parameter  3 :    Run $end
$var parameter 32 ;    Fight $end
$var parameter 32 <    React $end
$var parameter 32 =    A $end
$var parameter 32 >    B $end
$upscope $end

$upscope $end

$enddefinitions $end
$dumpvars
b11 >
b10 =
b1 <
b0 ;
b100 :
b11 9
b10 8
b1 7
b0 6
b10 5
b1 4
b0 3
b11 -
b10 ,
b1 +
b0 *
b100 )
b11 (
b10 '
b1 &
b0 %
1!
1"
bx #
bx $
1.
1/
bx 0
bx 1
b0 2
$end
#10
0!
0.
#20
0"
1!
1.
0/
b100 1
b100 $
#30
0!
0.
#40
1!
1.
#50
0!
0.
#60
b0 #
1!
1.
b0 0
b1 2
#70
0!
0.
#80
b10 #
1!
1.
b10 0
b0 1
b0 $
#90
0!
0.
#100
1!
1.
#110
0!
0.
#120
b11 #
1!
1.
b11 0
b1 1
b1 $
#130
0!
0.
#140
1!
1.
#150
0!
0.
#160
b10 #
1!
1.
b10 0
b0 1
b0 $
#170
0!
0.
#180
1!
1.
#190
0!
0.
#200
b11 #
1!
1.
b11 0
b1 1
b1 $
#210
0!
0.
#220
1!
1.
#230
0!
0.
#240
b0 #
1!
1.
b0 0
b100 1
b0 2
b100 $
#250
b10 #
0!
0.
b10 0
#260
1!
1.
#270
0!
0.
#280
b1 #
1!
1.
b1 0
b10 2
#290
0!
0.
#300
b10 #
1!
1.
b10 0
b10 1
b10 $
#310
0!
0.
#320
1!
1.
#330
0!
0.
#340
b11 #
1!
1.
b11 0
b11 1
b11 $
#350
0!
0.
#360
1!
1.
#370
0!
0.
#380
b10 #
1!
1.
b10 0
b10 1
b10 $
#390
0!
0.
#400
1!
1.
#410
0!
0.
#420
b1 #
1!
1.
b1 0
b100 1
b0 2
b100 $
#430
b11 #
0!
0.
b11 0
