Lab 9/dump.vcd
$date
    Oct 14, 2021  03:51:00
$end
$version
    TOOL:	xmsim	20.09-s003
$end
$timescale
    1 ns
$end

$scope module lfsr_tb $end
$var reg       1 !    clk $end
$var reg       1 "    preset_tb $end
$var wire      4 #    q_tb [3:0] $end

$scope module DUT $end
$var wire      1 $    clk  $end
$var wire      1 %    preset  $end
$var reg       4 &    q [3:0] $end
$var wire      1 '    out1  $end

$scope module DFF3 $end
$var wire      1 $    clk  $end
$var wire      1 '    d  $end
$var wire      1 %    preset  $end
$var reg       1 (    q $end
$upscope $end


$scope module DFF2 $end
$var wire      1 $    clk  $end
$var wire      1 )    d  $end
$var wire      1 %    preset  $end
$var reg       1 *    q $end
$upscope $end


$scope module DFF1 $end
$var wire      1 $    clk  $end
$var wire      1 +    d  $end
$var wire      1 %    preset  $end
$var reg       1 ,    q $end
$upscope $end


$scope module DFF0 $end
$var wire      1 $    clk  $end
$var wire      1 -    d  $end
$var wire      1 %    preset  $end
$var reg       1 .    q $end
$upscope $end

$upscope $end

$upscope $end

$enddefinitions $end
$dumpvars
1!
0"
b1111 #
1$
0%
b1111 &
0'
1(
1)
1*
1+
1,
1-
1.
$end
#5
1"
1%
#10
0!
0$
#20
1!
1$
0(
b111 &
0)
b111 #
1'
#30
0!
0$
#40
1!
1$
0*
1(
b1111 &
b1011 &
0+
1)
b1011 #
0'
#50
0!
0$
#60
1!
1$
0,
1*
0(
b11 &
b111 &
b101 &
0-
1+
0)
b101 #
1'
#70
0!
0$
#80
1!
1$
0.
1,
0*
1(
b1101 &
b1001 &
b1011 &
b1010 &
1-
0+
1)
b1010 #
#90
0!
0$
#100
1!
1$
1.
0,
1*
b1110 &
b1100 &
b1101 &
0-
1+
b1101 #
0'
#110
0!
0$
#120
1!
1$
0.
1,
0(
b101 &
b111 &
b110 &
1-
0)
b110 #
#130
0!
0$
#140
1!
1$
1.
0*
b10 &
b11 &
0+
b11 #
1'
#150
0!
0$
#160
1!
1$
0,
1(
b1011 &
b1001 &
0-
1)
b1001 #
0'
#170
0!
0$
#180
1!
1$
0.
1*
0(
b1 &
b101 &
b100 &
1+
0)
b100 #
#190
0!
0$
#200
1!
1$
1,
0*
b0 &
b10 &
1-
0+
b10 #
#210
0!
0$
#220
1!
1$
1.
0,
b0 &
b1 &
0-
b1 #
1'
#230
0!
0$
#240
1!
1$
0.
1(
b1001 &
b1000 &
1)
b1000 #
#250
0!
0$
#260
1!
1$
1*
b1100 &
1+
b1100 #
#270
0!
0$
#280
1!
1$
1,
b1110 &
1-
b1110 #
#290
0!
0$
#300
1!
1$
1.
b1111 &
b1111 #
0'
#310
0!
0$
#320
1!
1$
0(
b111 &
0)
b111 #
1'
#330
0!
0$
#340
1!
1$
0*
1(
b1111 &
b1011 &
0+
1)
b1011 #
0'
#350
0!
0$
#360
1!
1$
0,
1*
0(
b11 &
b111 &
b101 &
0-
1+
0)
b101 #
1'
#370
0!
0$
#380
1!
1$
0.
1,
0*
1(
b1101 &
b1001 &
b1011 &
b1010 &
1-
0+
1)
b1010 #
#390
0!
0$
#400
1!
1$
1.
0,
1*
b1110 &
b1100 &
b1101 &
0-
1+
b1101 #
0'
#410
0!
0$
#420
1!
1$
0.
1,
0(
b101 &
b111 &
b110 &
1-
0)
b110 #
#430
0!
0$
#440
1!
1$
1.
0*
b10 &
b11 &
0+
b11 #
1'
#450
0!
0$
#460
1!
1$
0,
1(
b1011 &
b1001 &
0-
1)
b1001 #
0'
#470
0!
0$
#480
1!
1$
0.
1*
0(
b1 &
b101 &
b100 &
1+
0)
b100 #
#490
0!
0$
#500
1!
1$
1,
0*
b0 &
b10 &
1-
0+
b10 #
