Lab 8/dump.vcd
$date
    Oct 14, 2021  03:48:51
$end
$version
    TOOL:	xmsim	20.09-s003
$end
$timescale
    1 ns
$end

$scope module SR_to_JK_conversion_tb $end
$var reg       1 !    j_tb $end
$var reg       1 "    k_tb $end
$var reg       1 #    clock $end
$var reg       1 $    reset $end
$var wire      1 %    q_tb  $end
$var wire      1 &    qbar_tb  $end

$scope module DUT $end
$var wire      1 '    J  $end
$var wire      1 (    K  $end
$var wire      1 )    clock  $end
$var wire      1 *    reset  $end
$var wire      1 +    w1  $end
$var wire      1 ,    w2  $end
$var wire      1 &    Qbar  $end
$var wire      1 %    Q  $end

$scope module s1 $end
$var wire      1 +    S  $end
$var wire      1 ,    R  $end
$var wire      1 )    clock  $end
$var wire      1 *    reset  $end
$var reg       1 -    Q $end
$var wire      1 &    Qbar  $end
$upscope $end

$upscope $end

$upscope $end

$enddefinitions $end
$dumpvars
x!
x"
1#
1$
0%
1&
x'
x(
1)
1*
x+
0,
0-
$end
#10
0#
0)
#20
1#
1)
#30
0#
0)
#40
1#
1)
#50
0#
0)
#60
1#
1)
#70
0#
0)
#80
1#
1)
#90
0#
0)
#100
1#
1)
0$
0*
#110
0#
0)
#120
1#
1)
#130
0#
0)
#140
1#
1)
#150
0#
0)
#160
1#
1)
#170
0#
0)
#180
1#
1)
#190
0#
0)
#200
1#
1)
0"
0!
0'
0(
0+
#210
0#
0)
#220
1#
1)
#230
0#
0)
#240
1#
1)
#250
0#
0)
#260
1#
1)
#270
0#
0)
#280
1#
1)
#290
0#
0)
#300
1#
1)
#310
0#
0)
#320
1#
1)
#330
0#
0)
1"
1(
#340
1#
1)
#350
0#
0)
#360
1#
1)
#370
0#
0)
#380
1#
1)
#390
0#
0)
#400
1#
1)
#410
0#
0)
#420
1#
1)
#430
0#
0)
#440
1#
1)
#450
0#
0)
#460
1#
1)
0"
1!
1'
0(
1+
#470
0#
0)
#480
1#
1)
1-
1%
0&
0+
#490
0#
0)
#500
1#
1)
#510
0#
0)
#520
1#
1)
#530
0#
0)
#540
1#
1)
#550
0#
0)
#560
1#
1)
#570
0#
0)
#580
1#
1)
#590
0#
0)
1"
1(
1,
#600
1#
1)
0-
0%
0,
1&
1+
#610
0#
0)
#620
1#
1)
1-
1%
1,
0&
0+
#630
0#
0)
#640
1#
1)
0-
0%
0,
1&
1+
#650
0#
0)
#660
1#
1)
1-
1%
1,
0&
0+
#670
0#
0)
#680
1#
1)
0-
0%
0,
1&
1+
#690
0#
0)
#700
1#
1)
1-
1%
1,
0&
0+
#710
0#
0)
#720
1#
1)
0-
0%
0,
1&
1+
#730
0#
0)
#740
1#
1)
1-
1%
1,
0&
0+
#750
0#
0)
#760
1#
1)
0-
0%
0,
1&
1+
#770
0#
0)
#780
1#
1)
1-
1%
1,
0&
0+
#790
0#
0)
#800
1#
1)
0-
0%
0,
1&
1+
#810
0#
0)
#820
1#
1)
1-
1%
1,
0&
0+
#830
0#
0)
#840
1#
1)
0-
0%
0,
1&
1+
#850
0#
0)
#860
1#
1)
1-
1%
1,
0&
0+
#870
0#
0)
#880
1#
1)
0-
0%
0,
1&
1+
#890
0#
0)
#900
1#
1)
1-
1%
1,
0&
0+
#910
0#
0)
#920
1#
1)
1$
0-
1*
0%
0,
1&
1+
